ANOVA_-_Robusto.R
…
par(mfrow = c(1, 1))

# Predicciones del modelo
(p_mod <- evaluate_model(mod, data = fbq))

## Warning: contrasts dropped from factor Intervention

## # A tibble: 107 x 5
##       id         Intervention Measure          z model_output
##    <chr>               <fctr>   <chr>      <dbl>        <dbl>
##  1  egs1 Positive Information     FBQ -0.6144200   -0.7866764
##  2  lrx2 Positive Information     FBQ -1.4875002   -0.7866764
##  3  zej3 Positive Information     FBQ -1.6621163   -0.7866764
##  4  bcv4 Positive Information     FBQ -1.3128842   -0.7866764
##  5  nzm5 Positive Information     FBQ -0.7017280   -0.7866764
##  6  fhf6 Positive Information     FBQ  0.5205843   -0.7866764
##  7  xra7 Positive Information     FBQ -1.0509601   -0.7866764
##  8  czq8 Positive Information     FBQ  1.2190485   -0.7866764
##  9  uoj9 Positive Information     FBQ -0.1778799   -0.7866764
## 10 ugf10 Positive Information     FBQ -1.1382682   -0.7866764
## # ... with 97 more rows
…
